<svg xmlns="http://www.w3.org/2000/svg" xmlns:xlink="http://www.w3.org/1999/xlink" width="332.582" height="272.644" viewBox="0 0 332.582 272.644">
  <defs>
    <filter id="Oval_Copy_17" x="218.108" y="112.093" width="114.474" height="113.124" filterUnits="userSpaceOnUse">
      <feOffset input="SourceAlpha"/>
      <feGaussianBlur stdDeviation="8.5" result="blur"/>
      <feFlood flood-opacity="0.165"/>
      <feComposite operator="in" in2="blur"/>
      <feComposite in="SourceGraphic"/>
    </filter>
    <filter id="Oval_Copy_17-2" x="0" y="159.36" width="114.474" height="113.124" filterUnits="userSpaceOnUse">
      <feOffset input="SourceAlpha"/>
      <feGaussianBlur stdDeviation="8.5" result="blur-2"/>
      <feFlood flood-opacity="0.165"/>
      <feComposite operator="in" in2="blur-2"/>
      <feComposite in="SourceGraphic"/>
    </filter>
    <filter id="Oval_Copy_17-3" x="18.232" y="0" width="114.474" height="113.124" filterUnits="userSpaceOnUse">
      <feOffset input="SourceAlpha"/>
      <feGaussianBlur stdDeviation="8.5" result="blur-3"/>
      <feFlood flood-opacity="0.165"/>
      <feComposite operator="in" in2="blur-3"/>
      <feComposite in="SourceGraphic"/>
    </filter>
  </defs>
  <g id="UI_elements_Donut_03-categories" data-name="UI elements/Donut/03-categories" transform="translate(-28.227 -58.552)">
    <g id="Donut_size_04" data-name="Donut/size 04" transform="translate(49 80)">
      <g id="Donut_chart" data-name="Donut chart" transform="translate(14.853 2.026)">
        <rect id="Rectangle_Copy_13" data-name="Rectangle Copy 13" width="212" height="232" rx="12" transform="translate(16.146 16.474)" fill="none"/>
        <path id="Donut_0" d="M25.181,0A123.55,123.55,0,0,1,136,68.4a121.241,121.241,0,0,1-13.481,128.98A124.071,124.071,0,0,1,1.382,242.146L0,241.869l10.917-52.906a70.062,70.062,0,0,0,69.16-25.009,67.221,67.221,0,0,0,7.515-71.579A69.518,69.518,0,0,0,25.978,54.025l-.8,0Z" transform="translate(97.183)" fill="#147ad6"/>
        <path id="Donut_1" d="M1.021,0,54.595,6.931a68.121,68.121,0,0,0,52.535,75.21l1.04.226L97.112,135.244A122.139,122.139,0,0,1,.79,1.9Z" transform="translate(0 105.926)" fill="#79d2de"/>
        <path id="Donut_2" d="M121.326,0V54.02c-33.946,0-62.739,25.2-67.606,59.132l-.14,1.031L0,107.3C7.8,46.588,58.752.921,119.483.014Z" transform="translate(0.223)" fill="#ec6666"/>
      </g>
    </g>
    <g id="Tooltip_circle" data-name="Tooltip/circle" transform="translate(271.835 196.144)">
      <g transform="matrix(1, 0, 0, 1, -243.61, -137.59)" filter="url(#Oval_Copy_17)">
        <ellipse id="Oval_Copy_17-4" data-name="Oval Copy 17" cx="31.737" cy="31.062" rx="31.737" ry="31.062" transform="translate(243.61 137.59)" fill="#fff"/>
      </g>
      <text id="_26_" data-name="26%" transform="translate(5.165 16.356)" fill="#707070" font-size="22" font-family="SegoeUI, Segoe UI"><tspan x="8.139" y="24">54%</tspan></text>
    </g>
    <g id="Tooltip_circle-2" data-name="Tooltip/circle" transform="translate(53.727 243.412)">
      <g transform="matrix(1, 0, 0, 1, -25.5, -184.86)" filter="url(#Oval_Copy_17-2)">
        <ellipse id="Oval_Copy_17-5" data-name="Oval Copy 17" cx="31.737" cy="31.062" rx="31.737" ry="31.062" transform="translate(25.5 184.86)" fill="#fff"/>
      </g>
      <text id="_26_2" data-name="26%" transform="translate(5.052 16.232)" fill="#707070" font-size="22" font-family="SegoeUI, Segoe UI"><tspan x="8.175" y="24">30%</tspan></text>
    </g>
    <g id="Tooltip_circle-3" data-name="Tooltip/circle" transform="translate(71.959 84.052)">
      <g transform="matrix(1, 0, 0, 1, -43.73, -25.5)" filter="url(#Oval_Copy_17-3)">
        <ellipse id="Oval_Copy_17-6" data-name="Oval Copy 17" cx="31.737" cy="31.062" rx="31.737" ry="31.062" transform="translate(43.73 25.5)" fill="#fff"/>
      </g>
      <text id="_26_3" data-name="26%" transform="translate(4.041 18.448)" fill="#707070" font-size="22" font-family="SegoeUI, Segoe UI"><tspan x="8.139" y="24">26%</tspan></text>
    </g>
  </g>
</svg>
