<svg xmlns="http://www.w3.org/2000/svg" width="510" height="268" viewBox="0 0 510 268">
  <g id="Group_71" data-name="Group 71" transform="translate(-754 -288.5)">
    <g id="UI_Element_Light_Column_charts_Stacked_column_charts_100_" data-name="UI Element/Light/Column charts/Stacked column charts 100%" transform="translate(754 288.5)">
      <g id="Chart">
        <g id="Chart-grid" transform="translate(0 249)">
          <g id="x-axis" transform="translate(0 0)">
            <text id="S" transform="translate(216 0)" fill="#707070" font-size="14" font-family="SegoeUI, Segoe UI"><tspan x="-3.719" y="15">S</tspan></text>
            <text id="S-2" data-name="S" transform="translate(179.5 0)" fill="#707070" font-size="14" font-family="SegoeUI, Segoe UI"><tspan x="-3.719" y="15">S</tspan></text>
            <text id="F" transform="translate(143 0)" fill="#707070" font-size="14" font-family="SegoeUI, Segoe UI"><tspan x="10.582" y="15">F</tspan></text>
            <text id="T" transform="translate(106.5 0)" fill="#707070" font-size="14" font-family="SegoeUI, Segoe UI"><tspan x="10.333" y="15">T</tspan></text>
            <text id="W" transform="translate(73 0)" fill="#707070" font-size="14" font-family="SegoeUI, Segoe UI"><tspan x="5.961" y="15">W</tspan></text>
            <text id="T-2" data-name="T" transform="translate(36.5 0)" fill="#707070" font-size="14" font-family="SegoeUI, Segoe UI"><tspan x="10.333" y="15">T</tspan></text>
            <text id="M" transform="translate(0 0)" fill="#707070" font-size="14" font-family="SegoeUI, Segoe UI"><tspan x="-6.286" y="15">M</tspan></text>
          </g>
        </g>
        <g id="column-charts" transform="translate(4)">
          <g id="_100_columns" data-name="100% columns">
            <g id="Charts_Columns_Bars_Single-column-size01" data-name="Charts/Columns&amp;Bars/Single-column-size01">
              <rect id="Rectangle_Copy_21" data-name="Rectangle Copy 21" width="20" height="237" rx="4" fill="rgba(115,136,169,0.35)"/>
            </g>
            <g id="Charts_Columns_Bars_Single-column-size01-2" data-name="Charts/Columns&amp;Bars/Single-column-size01" transform="translate(36)">
              <rect id="Rectangle_Copy_21-2" data-name="Rectangle Copy 21" width="20" height="237" rx="4" fill="rgba(115,136,169,0.35)"/>
            </g>
            <g id="Charts_Columns_Bars_Single-column-size01-3" data-name="Charts/Columns&amp;Bars/Single-column-size01" transform="translate(72)">
              <rect id="Rectangle_Copy_21-3" data-name="Rectangle Copy 21" width="20" height="237" rx="4" fill="rgba(115,136,169,0.35)"/>
            </g>
            <g id="Charts_Columns_Bars_Single-column-size01-4" data-name="Charts/Columns&amp;Bars/Single-column-size01" transform="translate(108)">
              <rect id="Rectangle_Copy_21-4" data-name="Rectangle Copy 21" width="20" height="237" rx="4" fill="rgba(115,136,169,0.35)"/>
            </g>
            <g id="Charts_Columns_Bars_Single-column-size01-5" data-name="Charts/Columns&amp;Bars/Single-column-size01" transform="translate(144)">
              <rect id="Rectangle_Copy_21-5" data-name="Rectangle Copy 21" width="20" height="237" rx="4" fill="rgba(115,136,169,0.35)"/>
            </g>
            <g id="Charts_Columns_Bars_Single-column-size01-6" data-name="Charts/Columns&amp;Bars/Single-column-size01" transform="translate(180)">
              <rect id="Rectangle_Copy_21-6" data-name="Rectangle Copy 21" width="20" height="237" rx="4" fill="rgba(115,136,169,0.35)"/>
            </g>
            <g id="Charts_Columns_Bars_Single-column-size01-7" data-name="Charts/Columns&amp;Bars/Single-column-size01" transform="translate(216)">
              <rect id="Rectangle_Copy_21-7" data-name="Rectangle Copy 21" width="20" height="237" rx="4" fill="rgba(115,136,169,0.35)"/>
            </g>
          </g>
          <g id="Charts_Columns_Bars_Single-column-size01-8" data-name="Charts/Columns&amp;Bars/Single-column-size01" transform="translate(216 119)">
            <rect id="Rectangle_Copy_21-8" data-name="Rectangle Copy 21" width="20" height="118" rx="4" fill="#147ad6"/>
          </g>
          <g id="Charts_Columns_Bars_Single-column-size01-9" data-name="Charts/Columns&amp;Bars/Single-column-size01" transform="translate(180 146)">
            <rect id="Rectangle_Copy_21-9" data-name="Rectangle Copy 21" width="20" height="91" rx="4" fill="#147ad6"/>
          </g>
          <g id="Charts_Columns_Bars_Single-column-size01-10" data-name="Charts/Columns&amp;Bars/Single-column-size01" transform="translate(144 56)">
            <rect id="Rectangle_Copy_21-10" data-name="Rectangle Copy 21" width="20" height="181" rx="4" fill="#147ad6"/>
          </g>
          <g id="Charts_Columns_Bars_Single-column-size01-11" data-name="Charts/Columns&amp;Bars/Single-column-size01" transform="translate(108 126)">
            <rect id="Rectangle_Copy_21-11" data-name="Rectangle Copy 21" width="20" height="111" rx="4" fill="#147ad6"/>
          </g>
          <g id="Charts_Columns_Bars_Single-column-size01-12" data-name="Charts/Columns&amp;Bars/Single-column-size01" transform="translate(72 56)">
            <rect id="Rectangle_Copy_21-12" data-name="Rectangle Copy 21" width="20" height="181" rx="4" fill="#147ad6"/>
          </g>
          <g id="Charts_Columns_Bars_Single-column-size01-13" data-name="Charts/Columns&amp;Bars/Single-column-size01" transform="translate(36 82)">
            <rect id="Rectangle_Copy_21-13" data-name="Rectangle Copy 21" width="20" height="155" rx="4" fill="#147ad6"/>
          </g>
          <g id="Charts_Columns_Bars_Single-column-size01-14" data-name="Charts/Columns&amp;Bars/Single-column-size01" transform="translate(0 126)">
            <rect id="Rectangle_Copy_21-14" data-name="Rectangle Copy 21" width="20" height="111" rx="4" fill="#147ad6"/>
          </g>
        </g>
      </g>
    </g>
    <g id="UI_Element_Light_Column_charts_Stacked_column_charts_100_2" data-name="UI Element/Light/Column charts/Stacked column charts 100%" transform="translate(1020 288.5)">
      <g id="Chart-2" data-name="Chart">
        <g id="Chart-grid-2" data-name="Chart-grid" transform="translate(0 249)">
          <g id="x-axis-2" data-name="x-axis" transform="translate(0 0)">
            <text id="S-3" data-name="S" transform="translate(216 0)" fill="#707070" font-size="14" font-family="SegoeUI, Segoe UI"><tspan x="10.281" y="15">S</tspan></text>
            <text id="S-4" data-name="S" transform="translate(179.5 0)" fill="#707070" font-size="14" font-family="SegoeUI, Segoe UI"><tspan x="-3.719" y="15">S</tspan></text>
            <text id="F-2" data-name="F" transform="translate(143 0)" fill="#707070" font-size="14" font-family="SegoeUI, Segoe UI"><tspan x="-3.418" y="15">F</tspan></text>
            <text id="T-3" data-name="T" transform="translate(106.5 0)" fill="#707070" font-size="14" font-family="SegoeUI, Segoe UI"><tspan x="10.333" y="15">T</tspan></text>
            <text id="W-2" data-name="W" transform="translate(73 0)" fill="#707070" font-size="14" font-family="SegoeUI, Segoe UI"><tspan x="5.961" y="15">W</tspan></text>
            <text id="T-4" data-name="T" transform="translate(36.5 0)" fill="#707070" font-size="14" font-family="SegoeUI, Segoe UI"><tspan x="10.333" y="15">T</tspan></text>
            <text id="M-2" data-name="M" transform="translate(0 0)" fill="#707070" font-size="14" font-family="SegoeUI, Segoe UI"><tspan x="7.714" y="15">M</tspan></text>
          </g>
        </g>
        <g id="column-charts-2" data-name="column-charts" transform="translate(4)">
          <g id="_100_columns-2" data-name="100% columns">
            <g id="Charts_Columns_Bars_Single-column-size01-15" data-name="Charts/Columns&amp;Bars/Single-column-size01">
              <rect id="Rectangle_Copy_21-15" data-name="Rectangle Copy 21" width="20" height="237" rx="4" fill="rgba(115,136,169,0.35)"/>
            </g>
            <g id="Charts_Columns_Bars_Single-column-size01-16" data-name="Charts/Columns&amp;Bars/Single-column-size01" transform="translate(36)">
              <rect id="Rectangle_Copy_21-16" data-name="Rectangle Copy 21" width="20" height="237" rx="4" fill="rgba(115,136,169,0.35)"/>
            </g>
            <g id="Charts_Columns_Bars_Single-column-size01-17" data-name="Charts/Columns&amp;Bars/Single-column-size01" transform="translate(72)">
              <rect id="Rectangle_Copy_21-17" data-name="Rectangle Copy 21" width="20" height="237" rx="4" fill="rgba(115,136,169,0.35)"/>
            </g>
            <g id="Charts_Columns_Bars_Single-column-size01-18" data-name="Charts/Columns&amp;Bars/Single-column-size01" transform="translate(108)">
              <rect id="Rectangle_Copy_21-18" data-name="Rectangle Copy 21" width="20" height="237" rx="4" fill="rgba(115,136,169,0.35)"/>
            </g>
            <g id="Charts_Columns_Bars_Single-column-size01-19" data-name="Charts/Columns&amp;Bars/Single-column-size01" transform="translate(144)">
              <rect id="Rectangle_Copy_21-19" data-name="Rectangle Copy 21" width="20" height="237" rx="4" fill="rgba(115,136,169,0.35)"/>
            </g>
            <g id="Charts_Columns_Bars_Single-column-size01-20" data-name="Charts/Columns&amp;Bars/Single-column-size01" transform="translate(180)">
              <rect id="Rectangle_Copy_21-20" data-name="Rectangle Copy 21" width="20" height="237" rx="4" fill="rgba(115,136,169,0.35)"/>
            </g>
            <g id="Charts_Columns_Bars_Single-column-size01-21" data-name="Charts/Columns&amp;Bars/Single-column-size01" transform="translate(216)">
              <rect id="Rectangle_Copy_21-21" data-name="Rectangle Copy 21" width="20" height="237" rx="4" fill="rgba(115,136,169,0.35)"/>
            </g>
          </g>
          <g id="Charts_Columns_Bars_Single-column-size01-22" data-name="Charts/Columns&amp;Bars/Single-column-size01" transform="translate(216 119)">
            <rect id="Rectangle_Copy_21-22" data-name="Rectangle Copy 21" width="20" height="118" rx="4" fill="#147ad6"/>
          </g>
          <g id="Charts_Columns_Bars_Single-column-size01-23" data-name="Charts/Columns&amp;Bars/Single-column-size01" transform="translate(180 146)">
            <rect id="Rectangle_Copy_21-23" data-name="Rectangle Copy 21" width="20" height="91" rx="4" fill="#147ad6"/>
          </g>
          <g id="Charts_Columns_Bars_Single-column-size01-24" data-name="Charts/Columns&amp;Bars/Single-column-size01" transform="translate(144 15)">
            <rect id="Rectangle_Copy_21-24" data-name="Rectangle Copy 21" width="20" height="222" rx="4" fill="#147ad6"/>
          </g>
          <g id="Charts_Columns_Bars_Single-column-size01-25" data-name="Charts/Columns&amp;Bars/Single-column-size01" transform="translate(108 126)">
            <rect id="Rectangle_Copy_21-25" data-name="Rectangle Copy 21" width="20" height="111" rx="4" fill="#147ad6"/>
          </g>
          <g id="Charts_Columns_Bars_Single-column-size01-26" data-name="Charts/Columns&amp;Bars/Single-column-size01" transform="translate(72 124)">
            <rect id="Rectangle_Copy_21-26" data-name="Rectangle Copy 21" width="20" height="113" rx="4" fill="#147ad6"/>
          </g>
          <g id="Charts_Columns_Bars_Single-column-size01-27" data-name="Charts/Columns&amp;Bars/Single-column-size01" transform="translate(36 178)">
            <rect id="Rectangle_Copy_21-27" data-name="Rectangle Copy 21" width="20" height="59" rx="4" fill="#147ad6"/>
          </g>
          <g id="Charts_Columns_Bars_Single-column-size01-28" data-name="Charts/Columns&amp;Bars/Single-column-size01" transform="translate(0 126)">
            <rect id="Rectangle_Copy_21-28" data-name="Rectangle Copy 21" width="20" height="111" rx="4" fill="#147ad6"/>
          </g>
        </g>
      </g>
    </g>
  </g>
</svg>
